9199261.27995, 9360257.83333, 37007789.0
8717065.93685, 9359485.5, 37251439.3333
8537273.36393, 9360209.45833, 37437169.6667
8973263.88802, 9360740.25, 28090426.0
8893221.91602, 9359485.66667, 28222483.6667
8910732.02135, 9359726.875, 37441610.1667
8819128.11393, 9360209.45833, 27889251.0
8482196.63607, 9359871.41667, 37102392.0
8683884.86393, 9360450.5, 37243716.3333
8913426.04102, 9360209.625, 28102396.3333
