6489242.47227, 6222972.625, 0.0
6544139.61003, 6261296.25, 0.0
6408714.50313, 5958809.33333, 0.0
6324982.55443, 5370631.75, 0.0
6411105.7526, 6065382.125, 0.0
6533322.47982, 5823711.0, 0.0
6634453.79167, 6339874.54167, 0.0
6483564.59206, 5973654.0, 0.0
5791014.15365, 5078425.125, 0.0
6147599.49089, 5904315.95833, 0.0
